{
  "id": "work",
  "type": "work",
  "children": [
    {
      "id": "vador",
      "type": "workChild"
    },
    {
      "id": "member-search",
      "type": "workChild"
    },
    {
      "id": "work-queue",
      "type": "workChild"
    },
    {
      "id": "my-last-interactions",
      "type": "workChild"
    }
  ]
}
